Lab3/contador_mod256/simulation/qsim/contador_mod_256.msim.vcd
$comment
	File created using the following command:
		vcd file contador_mod_256.msim.vcd -direction
$end
$date
	Sat Oct 01 18:06:39 2022
$end
$version
	ModelSim Version 10.1d
$end
$timescale
	1ps
$end
$scope module contador_mod_256_vlg_vec_tst $end
$var reg 1 ! CLK $end
$var reg 1 " CLR $end
$var reg 1 # E $end
$var reg 1 $ LD $end
$var reg 8 % x [7:0] $end
$var wire 1 & q [7] $end
$var wire 1 ' q [6] $end
$var wire 1 ( q [5] $end
$var wire 1 ) q [4] $end
$var wire 1 * q [3] $end
$var wire 1 + q [2] $end
$var wire 1 , q [1] $end
$var wire 1 - q [0] $end
$var wire 1 . TC $end
$var wire 1 / sampler $end
$scope module i1 $end
$var wire 1 0 gnd $end
$var wire 1 1 vcc $end
$var wire 1 2 unknown $end
$var tri1 1 3 devclrn $end
$var tri1 1 4 devpor $end
$var tri1 1 5 devoe $end
$var wire 1 6 inst|inst1~1_combout $end
$var wire 1 7 inst|inst2~1_combout $end
$var wire 1 8 inst|inst3~0_combout $end
$var wire 1 9 inst1|inst2~0_combout $end
$var wire 1 : inst1|inst3~0_combout $end
$var wire 1 ; CLR~combout $end
$var wire 1 < LD~combout $end
$var wire 1 = E~combout $end
$var wire 1 > inst|inst2~0_combout $end
$var wire 1 ? inst1|inst1~0_combout $end
$var wire 1 @ inst|inst1~0_combout $end
$var wire 1 A inst|inst1~2_combout $end
$var wire 1 B inst|inst1~regout $end
$var wire 1 C inst|inst3~1_combout $end
$var wire 1 D inst|inst3~regout $end
$var wire 1 E inst|inst2~2_combout $end
$var wire 1 F inst|inst2~3_combout $end
$var wire 1 G inst|inst2~regout $end
$var wire 1 H inst7~0_combout $end
$var wire 1 I inst6~0_combout $end
$var wire 1 J inst1|inst2~1_combout $end
$var wire 1 K inst1|inst2~2_combout $end
$var wire 1 L inst1|inst2~regout $end
$var wire 1 M inst1|inst3~1_combout $end
$var wire 1 N inst1|inst3~regout $end
$var wire 1 O inst7~1_combout $end
$var wire 1 P inst1|inst1~1_combout $end
$var wire 1 Q inst1|inst1~2_combout $end
$var wire 1 R inst1|inst1~regout $end
$var wire 1 S inst1|inst~0_combout $end
$var wire 1 T inst1|inst~1_combout $end
$var wire 1 U inst1|inst~2_combout $end
$var wire 1 V inst1|inst~3_combout $end
$var wire 1 W inst1|inst~regout $end
$var wire 1 X inst7~2_combout $end
$var wire 1 Y CLK~combout $end
$var wire 1 Z CLK~clkctrl_outclk $end
$var wire 1 [ inst7~3_combout $end
$var wire 1 \ inst|inst~0_combout $end
$var wire 1 ] inst|inst~1_combout $end
$var wire 1 ^ inst|inst~regout $end
$var wire 1 _ x~combout [7] $end
$var wire 1 ` x~combout [6] $end
$var wire 1 a x~combout [5] $end
$var wire 1 b x~combout [4] $end
$var wire 1 c x~combout [3] $end
$var wire 1 d x~combout [2] $end
$var wire 1 e x~combout [1] $end
$var wire 1 f x~combout [0] $end
$upscope $end
$upscope $end
$enddefinitions $end
#0
$dumpvars
0!
0"
1#
0$
b0 %
0-
0,
0+
0*
0)
0(
0'
0&
0.
x/
00
11
x2
13
14
15
06
07
18
09
1:
0;
0<
1=
0>
0?
0@
0A
0B
1C
0D
0E
0F
0G
0H
0I
0J
0K
0L
0M
0N
0O
0P
0Q
0R
0S
0T
0U
0V
0W
0X
0Y
0Z
0[
0\
0]
0^
0f
0e
0d
0c
0b
0a
0`
0_
$end
#100000
1!
1Y
1Z
0/
1D
1E
08
1-
1F
0C
#200000
0!
0Y
0Z
1/
#300000
1!
1Y
1Z
0/
1G
0D
18
1,
0-
1C
#400000
0!
0Y
0Z
1/
#500000
1!
1Y
1Z
0/
1D
0E
08
16
1-
0F
0C
1A
#600000
0!
0Y
0Z
1/
#700000
1!
1Y
1Z
0/
0G
0D
1B
06
18
1@
0,
0-
1+
1C
#800000
0!
0Y
0Z
1/
#900000
1!
1Y
1Z
0/
1D
1E
08
1-
1F
0C
#1000000
b10000 %
b11000 %
1$
0!
1c
1b
1<
0Y
0Z
1/
1J
1I
0F
1>
1M
1]
0A
#1100000
1!
1Y
1Z
0/
1^
1N
0D
0B
1\
0E
0@
1*
1)
0-
0+
#1200000
b1000 %
b0 %
0$
0!
0c
0b
0<
0Y
0Z
1/
0]
0:
0J
0I
0>
19
18
1]
1C
#1300000
1!
1Y
1Z
0/
1D
1E
08
1-
1F
0C
#1400000
0!
0Y
0Z
1/
#1440000
1"
1;
0/
0\
1I
0E
0]
0M
0F
#1500000
1!
1Y
1Z
1/
0^
0N
0D
1:
09
18
0*
0)
0-
#1600000
0"
0!
0;
0Y
0Z
0/
0I
1C
#1640000
0#
0=
1/
0C
#1700000
1!
1Y
1Z
0/
#1800000
1"
0!
1;
0Y
0Z
1/
#1900000
1!
1Y
1Z
0/
#2000000
0!
0Y
0Z
1/
#2040000
1#
0"
1=
0;
0/
1C
#2100000
1!
1Y
1Z
1/
1D
1E
08
1-
1F
0C
#2200000
0!
0Y
0Z
0/
#2300000
1!
1Y
1Z
1/
1G
0D
18
1,
0-
1C
#2320000
b100000 %
b100100 %
b100101 %
1$
1"
1f
1d
1a
1<
1;
0/
19
1I
0F
0:
0E
0C
#2400000
0!
0Y
0Z
1/
#2500000
1!
1Y
1Z
0/
0G
0,
#2600000
0!
0Y
0Z
1/
#2700000
1!
1Y
1Z
0/
#2720000
b101 %
b1 %
b0 %
0$
0"
0f
0d
0a
0<
0;
1/
09
0I
1:
1C
#2800000
0!
0Y
0Z
0/
#2900000
1!
1Y
1Z
1/
1D
1E
08
1-
1F
0C
#3000000
0!
0Y
0Z
0/
#3100000
1!
1Y
1Z
1/
1G
0D
18
1,
0-
1C
#3160000
b10000000 %
b11000000 %
b11010000 %
b11110000 %
b11110100 %
1d
1b
1a
1`
1_
0/
#3200000
1$
0!
1<
0Y
0Z
1/
1J
1I
0F
1>
19
08
1M
1K
1V
1Q
1A
0C
#3300000
1!
1Y
1Z
0/
1W
1R
1N
1L
0G
1B
1O
0E
1@
1&
1'
1)
1(
0,
1+
#3360000
b1110100 %
b110100 %
b100100 %
b100 %
b0 %
0$
0d
0b
0a
0`
0_
0<
1/
0A
0:
09
0Q
0V
1S
0J
0I
1?
0>
18
1U
1P
1A
1C
1V
1Q
#3400000
0!
0Y
0Z
0/
#3500000
1!
1Y
1Z
1/
1D
1E
08
1-
1F
0C
#3600000
0!
0Y
0Z
0/
#3700000
1!
1Y
1Z
1/
1G
0D
18
1,
0-
1C
#3800000
0!
0Y
0Z
0/
#3900000
1!
1Y
1Z
1/
1D
1[
0E
08
16
1-
1\
0F
0C
0A
1]
#4000000
0!
0Y
0Z
0/
#4080000
1"
1;
1/
0\
0S
1I
0@
0?
06
0]
0U
0M
0K
0P
0V
0Q
#4100000
1!
1Y
1Z
0/
0W
0R
0N
0L
0G
0D
0B
0O
1:
0[
18
0&
0'
0)
0(
0,
0-
0+
#4200000
0!
0Y
0Z
1/
#4300000
1!
1Y
1Z
0/
#4320000
0"
0;
1/
0I
1C
#4400000
0!
0Y
0Z
0/
#4500000
1!
1Y
1Z
1/
1D
1E
08
1-
1F
0C
#4600000
0!
0Y
0Z
0/
#4700000
1!
1Y
1Z
1/
1G
0D
18
1,
0-
1C
#4800000
0!
0Y
0Z
0/
#4900000
1!
1Y
1Z
1/
1D
0E
08
16
1-
0F
0C
1A
#4960000
0#
0=
0/
1C
17
06
1F
0A
