Lab5/ram16x4/simulation/qsim/ram.msim.vcd
$comment
	File created using the following command:
		vcd file ram.msim.vcd -direction
$end
$date
	Sun Oct 23 14:38:05 2022
$end
$version
	ModelSim Version 10.1d
$end
$timescale
	1ps
$end
$scope module ram_vlg_vec_tst $end
$var reg 4 ! addr [3:0] $end
$var reg 1 " CLK $end
$var reg 4 # i [3:0] $end
$var reg 1 $ R0W1 $end
$var reg 1 % SEL $end
$var wire 1 & o [3] $end
$var wire 1 ' o [2] $end
$var wire 1 ( o [1] $end
$var wire 1 ) o [0] $end
$var wire 1 * sampler $end
$scope module i1 $end
$var wire 1 + gnd $end
$var wire 1 , vcc $end
$var wire 1 - unknown $end
$var tri1 1 . devclrn $end
$var tri1 1 / devpor $end
$var tri1 1 0 devoe $end
$var wire 1 1 inst5|inst5~0_combout $end
$var wire 1 2 inst22|inst5~0_combout $end
$var wire 1 3 inst5|inst5~1_combout $end
$var wire 1 4 inst5|inst5~2_combout $end
$var wire 1 5 inst24|inst5~0_combout $end
$var wire 1 6 inst25|inst5~0_combout $end
$var wire 1 7 inst5|inst5~5_combout $end
$var wire 1 8 inst26|inst4|inst|inst~regout $end
$var wire 1 9 inst27|inst4|inst|inst~regout $end
$var wire 1 : inst5|inst5~6_combout $end
$var wire 1 ; inst|inst6|inst~6_combout $end
$var wire 1 < inst28|inst4|inst|inst~regout $end
$var wire 1 = inst31|inst4|inst|inst~regout $end
$var wire 1 > inst32|inst4|inst|inst~regout $end
$var wire 1 ? inst32|inst6|inst~0_combout $end
$var wire 1 @ inst25|inst4|inst10|inst~regout $end
$var wire 1 A inst34|inst4|inst10|inst~regout $end
$var wire 1 B inst|inst6|inst1~3_combout $end
$var wire 1 C inst26|inst4|inst10|inst~regout $end
$var wire 1 D inst31|inst4|inst10|inst~regout $end
$var wire 1 E inst36|inst4|inst10|inst~regout $end
$var wire 1 F inst|inst6|inst1~8_combout $end
$var wire 1 G inst22|inst4|inst11|inst~regout $end
$var wire 1 H inst|inst4|inst11|inst~regout $end
$var wire 1 I inst|inst6|inst2~1_combout $end
$var wire 1 J inst35|inst4|inst11|inst~regout $end
$var wire 1 K inst27|inst4|inst12|inst~regout $end
$var wire 1 L inst26|inst4|inst12|inst~regout $end
$var wire 1 M inst|inst6|inst3~4_combout $end
$var wire 1 N inst29|inst4|inst12|inst~regout $end
$var wire 1 O CLK~combout $end
$var wire 1 P CLK~clkctrl_outclk $end
$var wire 1 Q inst35|inst4|inst11|inst~feeder_combout $end
$var wire 1 R inst|inst4|inst11|inst~feeder_combout $end
$var wire 1 S R0W1~combout $end
$var wire 1 T inst28|inst5~0_combout $end
$var wire 1 U inst35|inst~0_combout $end
$var wire 1 V inst35|inst4|inst|inst~regout $end
$var wire 1 W inst35|inst5~0_combout $end
$var wire 1 X inst|inst6|inst~8_combout $end
$var wire 1 Y inst24|inst~0_combout $end
$var wire 1 Z inst24|inst4|inst|inst~regout $end
$var wire 1 [ SEL~combout $end
$var wire 1 \ inst5|inst5~3_combout $end
$var wire 1 ] inst23|inst~0_combout $end
$var wire 1 ^ inst23|inst4|inst|inst~regout $end
$var wire 1 _ inst23|inst5~0_combout $end
$var wire 1 ` inst|inst6|inst~4_combout $end
$var wire 1 a inst25|inst4|inst|inst~feeder_combout $end
$var wire 1 b inst5|inst5~4_combout $end
$var wire 1 c inst25|inst~0_combout $end
$var wire 1 d inst25|inst4|inst|inst~regout $end
$var wire 1 e inst34|inst~0_combout $end
$var wire 1 f inst34|inst4|inst|inst~regout $end
$var wire 1 g inst34|inst5~0_combout $end
$var wire 1 h inst|inst6|inst~5_combout $end
$var wire 1 i inst22|inst4|inst|inst~feeder_combout $end
$var wire 1 j inst22|inst~0_combout $end
$var wire 1 k inst22|inst4|inst|inst~regout $end
$var wire 1 l inst|inst~0_combout $end
$var wire 1 m inst|inst4|inst|inst~regout $end
$var wire 1 n inst|inst5~0_combout $end
$var wire 1 o inst|inst6|inst~3_combout $end
$var wire 1 p inst|inst6|inst~7_combout $end
$var wire 1 q inst30|inst5~0_combout $end
$var wire 1 r inst29|inst~0_combout $end
$var wire 1 s inst29|inst4|inst|inst~regout $end
$var wire 1 t inst30|inst~0_combout $end
$var wire 1 u inst30|inst4|inst|inst~regout $end
$var wire 1 v inst|inst6|inst~9_combout $end
$var wire 1 w inst33|inst5~0_combout $end
$var wire 1 x inst33|inst~0_combout $end
$var wire 1 y inst33|inst4|inst|inst~regout $end
$var wire 1 z inst36|inst5~0_combout $end
$var wire 1 { inst36|inst~0_combout $end
$var wire 1 | inst36|inst4|inst|inst~regout $end
$var wire 1 } inst31|inst5~0_combout $end
$var wire 1 ~ inst|inst6|inst~10_combout $end
$var wire 1 !! inst|inst6|inst~11_combout $end
$var wire 1 "! inst|inst6|inst~12_combout $end
$var wire 1 #! inst|inst6|inst~13_combout $end
$var wire 1 $! inst30|inst4|inst10|inst~regout $end
$var wire 1 %! inst29|inst4|inst10|inst~feeder_combout $end
$var wire 1 &! inst29|inst4|inst10|inst~regout $end
$var wire 1 '! inst|inst6|inst1~7_combout $end
$var wire 1 (! inst28|inst~0_combout $end
$var wire 1 )! inst28|inst4|inst10|inst~regout $end
$var wire 1 *! inst35|inst4|inst10|inst~regout $end
$var wire 1 +! inst|inst6|inst1~6_combout $end
$var wire 1 ,! inst33|inst4|inst10|inst~regout $end
$var wire 1 -! inst5|inst5~7_combout $end
$var wire 1 .! inst32|inst~0_combout $end
$var wire 1 /! inst32|inst4|inst10|inst~regout $end
$var wire 1 0! inst32|inst6|inst1~0_combout $end
$var wire 1 1! inst|inst6|inst1~9_combout $end
$var wire 1 2! inst27|inst5~0_combout $end
$var wire 1 3! inst27|inst~0_combout $end
$var wire 1 4! inst27|inst4|inst10|inst~regout $end
$var wire 1 5! inst26|inst5~0_combout $end
$var wire 1 6! inst|inst6|inst1~4_combout $end
$var wire 1 7! inst23|inst4|inst10|inst~regout $end
$var wire 1 8! inst24|inst4|inst10|inst~regout $end
$var wire 1 9! inst|inst6|inst1~2_combout $end
$var wire 1 :! inst22|inst4|inst10|inst~regout $end
$var wire 1 ;! inst|inst4|inst10|inst~regout $end
$var wire 1 <! inst|inst6|inst1~1_combout $end
$var wire 1 =! inst|inst6|inst1~5_combout $end
$var wire 1 >! inst|inst6|inst1~10_combout $end
$var wire 1 ?! inst25|inst4|inst11|inst~regout $end
$var wire 1 @! inst34|inst4|inst11|inst~feeder_combout $end
$var wire 1 A! inst34|inst4|inst11|inst~regout $end
$var wire 1 B! inst|inst6|inst2~3_combout $end
$var wire 1 C! inst23|inst4|inst11|inst~regout $end
$var wire 1 D! inst24|inst4|inst11|inst~regout $end
$var wire 1 E! inst|inst6|inst2~2_combout $end
$var wire 1 F! inst27|inst4|inst11|inst~regout $end
$var wire 1 G! inst26|inst~0_combout $end
$var wire 1 H! inst26|inst4|inst11|inst~regout $end
$var wire 1 I! inst|inst6|inst2~4_combout $end
$var wire 1 J! inst|inst6|inst2~5_combout $end
$var wire 1 K! inst30|inst4|inst11|inst~regout $end
$var wire 1 L! inst29|inst4|inst11|inst~regout $end
$var wire 1 M! inst|inst6|inst2~7_combout $end
$var wire 1 N! inst28|inst4|inst11|inst~regout $end
$var wire 1 O! inst|inst6|inst2~6_combout $end
$var wire 1 P! inst32|inst4|inst11|inst~regout $end
$var wire 1 Q! inst32|inst6|inst2~0_combout $end
$var wire 1 R! inst33|inst4|inst11|inst~regout $end
$var wire 1 S! inst36|inst4|inst11|inst~feeder_combout $end
$var wire 1 T! inst36|inst4|inst11|inst~regout $end
$var wire 1 U! inst31|inst~0_combout $end
$var wire 1 V! inst31|inst4|inst11|inst~regout $end
$var wire 1 W! inst|inst6|inst2~8_combout $end
$var wire 1 X! inst|inst6|inst2~9_combout $end
$var wire 1 Y! inst|inst6|inst2~10_combout $end
$var wire 1 Z! inst34|inst4|inst12|inst~feeder_combout $end
$var wire 1 [! inst34|inst4|inst12|inst~regout $end
$var wire 1 \! inst25|inst4|inst12|inst~regout $end
$var wire 1 ]! inst|inst6|inst3~3_combout $end
$var wire 1 ^! inst22|inst4|inst12|inst~regout $end
$var wire 1 _! inst|inst4|inst12|inst~regout $end
$var wire 1 `! inst|inst6|inst3~1_combout $end
$var wire 1 a! inst23|inst4|inst12|inst~regout $end
$var wire 1 b! inst24|inst4|inst12|inst~regout $end
$var wire 1 c! inst|inst6|inst3~2_combout $end
$var wire 1 d! inst|inst6|inst3~5_combout $end
$var wire 1 e! inst30|inst4|inst12|inst~regout $end
$var wire 1 f! inst29|inst5~0_combout $end
$var wire 1 g! inst|inst6|inst3~7_combout $end
$var wire 1 h! inst28|inst4|inst12|inst~regout $end
$var wire 1 i! inst35|inst4|inst12|inst~regout $end
$var wire 1 j! inst|inst6|inst3~6_combout $end
$var wire 1 k! inst31|inst4|inst12|inst~regout $end
$var wire 1 l! inst36|inst4|inst12|inst~regout $end
$var wire 1 m! inst|inst6|inst3~8_combout $end
$var wire 1 n! inst33|inst4|inst12|inst~regout $end
$var wire 1 o! inst32|inst4|inst12|inst~regout $end
$var wire 1 p! inst32|inst6|inst3~0_combout $end
$var wire 1 q! inst|inst6|inst3~9_combout $end
$var wire 1 r! inst|inst6|inst3~10_combout $end
$var wire 1 s! i~combout [3] $end
$var wire 1 t! i~combout [2] $end
$var wire 1 u! i~combout [1] $end
$var wire 1 v! i~combout [0] $end
$var wire 1 w! addr~combout [3] $end
$var wire 1 x! addr~combout [2] $end
$var wire 1 y! addr~combout [1] $end
$var wire 1 z! addr~combout [0] $end
$upscope $end
$upscope $end
$enddefinitions $end
#0
$dumpvars
b0 !
0"
b10 #
1$
1%
z)
z(
z'
z&
x*
0+
1,
x-
1.
1/
10
01
02
03
14
05
06
07
08
09
0:
1;
0<
0=
0>
1?
0@
0A
1B
0C
0D
0E
1F
0G
0H
1I
0J
0K
0L
1M
0N
0O
0P
1Q
1R
1S
0T
0U
0V
0W
1X
1Y
0Z
1[
0\
0]
0^
0_
1`
0a
0b
0c
0d
0e
0f
0g
1h
0i
0j
0k
0l
0m
0n
1o
1p
0q
0r
0s
0t
0u
1v
0w
0x
0y
0z
0{
0|
0}
1~
1!!
1"!
0#!
0$!
0%!
0&!
1'!
0(!
0)!
0*!
1+!
0,!
0-!
0.!
0/!
10!
11!
02!
03!
04!
05!
16!
07!
08!
19!
0:!
0;!
1<!
1=!
1>!
0?!
1@!
0A!
1B!
0C!
0D!
1E!
0F!
0G!
0H!
1I!
1J!
0K!
0L!
1M!
0N!
1O!
0P!
1Q!
0R!
1S!
0T!
0U!
0V!
1W!
1X!
1Y!
0Z!
0[!
0\!
1]!
0^!
0_!
1`!
0a!
0b!
1c!
1d!
0e!
0f!
1g!
0h!
0i!
1j!
0k!
0l!
1m!
0n!
0o!
1p!
1q!
1r!
0v!
1u!
0t!
0s!
0z!
0y!
0x!
0w!
$end
#80000
1"
1O
1P
0*
1D!
#160000
0"
0O
0P
1*
#250000
b110 #
b100 #
b1 !
1z!
0u!
1t!
0*
1\
04
0S!
0@!
0R
0Q
1%!
1]
0Y
#320000
1"
1O
1P
1*
17!
#400000
0"
0O
0P
0*
#500000
b1100 #
b11 !
b1000 #
b10 !
0z!
1y!
0t!
1s!
1*
0\
11
0%!
1i
1a
0]
1j
#560000
1"
1O
1P
0*
1k
#640000
0"
0O
0P
1*
#750000
b1001 #
b1011 #
b1111 #
b11 !
1z!
1v!
1u!
1t!
0*
13
01
1Z!
1S!
1@!
1R
1Q
1%!
1l
0j
#800000
1"
1O
1P
1*
1_!
1;!
1m
1H
#880000
0"
0O
0P
0*
#1000000
b111 !
b111 #
b101 !
b100 !
0s!
0z!
0y!
1x!
1*
0i
0a
1:
03
13!
0l
#1040000
1"
1O
1P
0*
1F!
14!
1K
#1120000
0"
0O
0P
1*
#1250000
b11 #
b101 !
1z!
0t!
0*
1-!
0:
0%!
1G!
03!
#1360000
1"
1O
1P
1*
1H!
1L
#1440000
0"
0O
0P
0*
#1500000
b1011 #
b111 !
b110 !
0z!
1y!
1s!
1*
0-!
1b
1i
1a
0G!
1c
#1600000
1"
1O
1P
0*
1\!
1?!
1d
#1680000
0"
0O
0P
1*
#1750000
b1010 #
b1110 #
b110 #
b111 !
1z!
0v!
1t!
0s!
0*
0b
17
0Z!
1%!
0i
0a
0c
1e
#1840000
1"
1O
1P
1*
1A!
1A
#1920000
0"
0O
0P
0*
#2000000
b1111 !
b1011 !
b1001 !
b111 #
b11 #
b1000 !
1v!
0t!
0z!
0y!
0x!
1w!
1*
1Z!
0%!
07
14
1{
0e
0{
1t
#2080000
1"
1O
1P
0*
1e!
1K!
#2160000
0"
0O
0P
1*
#2250000
b1 #
b0 #
b100 #
b1001 !
1z!
0v!
0u!
1t!
0*
1\
04
0Z!
0S!
0@!
0R
0Q
1%!
1r
0t
#2320000
1"
1O
1P
1*
1&!
#2400000
0"
0O
0P
0*
#2500000
b1100 #
b1011 !
b1101 #
b1001 #
b1010 !
0z!
1y!
1v!
0t!
1s!
1*
0\
11
1Z!
0%!
1i
1a
0r
1(!
#2560000
1"
1O
1P
0*
1h!
1<
#2640000
0"
0O
0P
1*
#2750000
b1000 #
b1011 !
1z!
0v!
0*
13
01
0Z!
1U
0(!
#2800000
1"
1O
1P
1*
1V
#2880000
0"
0O
0P
0*
#3000000
b1111 !
b1101 !
b1001 #
b1100 !
1v!
0z!
0y!
1x!
1*
1Z!
1:
03
1x
0U
#3120000
1"
1O
1P
0*
1n!
1y
#3200000
0"
0O
0P
1*
#3250000
b1 #
b0 #
b1101 !
1z!
0v!
0s!
0*
1-!
0:
0Z!
0i
0a
1.!
0x
#3360000
1"
1O
1P
1*
#3440000
0"
0O
0P
0*
#3500000
b10 #
b1111 !
b1110 !
0z!
1y!
1u!
1*
0-!
1b
1S!
1@!
1R
1Q
0.!
1U!
#3600000
1"
1O
1P
0*
1V!
#3680000
0"
0O
0P
1*
#3750000
b11 #
b1111 !
1z!
1v!
0*
0b
17
1Z!
0U!
1{
#3840000
1"
1O
1P
1*
1l!
1T!
#3920000
0"
0O
0P
0*
#4000000
0$
b111 !
b11 !
b1 #
b1 !
b0 #
b0 !
0S
0v!
0u!
0z!
0y!
0x!
0w!
1*
1#!
0{
1g
0Z!
0S!
0@!
0R
0Q
07
14
0]!
0h
0g
15
1)
1(
1'
1&
0d!
0p
1]!
1h
0c!
09!
0`
0r!
0"!
0=!
0>!
0)
0&
0'
#4250000
b1 !
1z!
0*
1\
04
1_
05
0E!
19!
0J!
1=!
0Y!
1>!
0(
1'
#4500000
b11 !
b10 !
0z!
1y!
1*
0\
11
0_
12
1c!
1E!
1`
0`!
0<!
0I
1p
0=!
1"!
0>!
1&
0'
#4750000
b11 !
1z!
0*
13
01
1n
02
1`!
1<!
1I
1d!
1=!
1J!
1r!
1>!
1Y!
1)
1'
1(
#5000000
b111 !
b101 !
b100 !
0z!
0y!
1x!
1*
1:
03
12!
0n
0;
0p
0"!
0&
#5250000
b101 !
1z!
0*
1-!
0:
15!
02!
06!
0=!
0>!
0'
#5500000
b111 !
b110 !
0z!
1y!
1*
0-!
1b
05!
16
16!
1;
0B
1p
1"!
1&
#5750000
b111 !
1z!
0*
0b
17
06
1g
0]!
0h
1B
0d!
0p
1=!
0r!
0"!
1>!
0)
0&
1'
#6000000
b1111 !
b1011 !
b1001 !
b1000 !
0z!
0y!
0x!
1w!
1*
07
14
1z
0g
0z
1q
0~
0F
1]!
1h
1~
1F
0'!
0v
0!!
01!
1d!
1p
1!!
11!
0>!
1r!
0'
1)
#6250000
b1001 !
1z!
0*
1\
04
1f!
0q
0g!
0M!
1'!
0r!
0Y!
1>!
0)
0(
1'
#6500000
b1011 !
b1010 !
0z!
1y!
1*
0\
11
0f!
1T
1g!
1M!
1v
0O!
0+!
1r!
1"!
0>!
1)
1&
0'
#6750000
b1011 !
1z!
0*
13
01
1W
0T
0j!
0r!
0)
#7000000
b1111 !
b1101 !
b1100 !
0z!
0y!
1x!
1*
1:
03
1w
0W
0X!
01!
1j!
1O!
1+!
1r!
1)
#7250000
b1101 !
1z!
0*
1-!
0:
0p!
0Q!
00!
0?
0w
0q!
0!!
0r!
0"!
0)
0&
#7500000
b1111 !
b1110 !
0z!
1y!
1*
0-!
1b
1p!
1Q!
10!
1?
1}
1q!
1X!
11!
1!!
0m!
0~
0F
1r!
1Y!
1>!
1"!
0q!
0!!
01!
0r!
0"!
0>!
1)
1(
1'
1&
0)
0&
0'
#7750000
b1111 !
1z!
0*
0b
17
0}
1z
1m!
1q!
1r!
1)
