Lab2/ULA_restored/simulation/qsim/ULA.msim.vcd
$comment
	File created using the following command:
		vcd file ULA.msim.vcd -direction
$end
$date
	Sat Nov 05 16:01:28 2022
$end
$version
	ModelSim Version 10.1d
$end
$timescale
	1ps
$end
$scope module ULA_teste_vlg_vec_tst $end
$var reg 4 ! KEY [3:0] $end
$var reg 9 " SW [8:0] $end
$var wire 1 # LEDR [7] $end
$var wire 1 $ LEDR [6] $end
$var wire 1 % LEDR [5] $end
$var wire 1 & LEDR [4] $end
$var wire 1 ' LEDR [3] $end
$var wire 1 ( LEDR [2] $end
$var wire 1 ) LEDR [1] $end
$var wire 1 * LEDR [0] $end
$var wire 1 + sampler $end
$scope module i1 $end
$var wire 1 , gnd $end
$var wire 1 - vcc $end
$var wire 1 . unknown $end
$var tri1 1 / devclrn $end
$var tri1 1 0 devpor $end
$var tri1 1 1 devoe $end
$var wire 1 2 inst|inst4|inst1|inst3~0_combout $end
$var wire 1 3 inst|inst5|inst10~0_combout $end
$var wire 1 4 inst|inst5|inst10~1_combout $end
$var wire 1 5 inst|inst3|inst3~combout $end
$var wire 1 6 inst|inst|inst~combout $end
$var wire 1 7 inst|inst4|inst|inst1|inst2~combout $end
$var wire 1 8 inst|inst5|inst~0_combout $end
$var wire 1 9 inst|inst|inst4~combout $end
$var wire 1 : inst|inst|inst5~combout $end
$var wire 1 ; inst|inst3|inst1~combout $end
$var wire 1 < inst|inst4|inst2|inst3~0_combout $end
$var wire 1 = inst|inst4|inst8~0_combout $end
$var wire 1 > inst|inst4|inst2|inst1|inst2~0_combout $end
$var wire 1 ? inst|inst|inst1~combout $end
$var wire 1 @ inst|inst3|inst2~combout $end
$var wire 1 A inst|inst4|inst|inst3~0_combout $end
$var wire 1 B inst|inst4|inst1|inst1|inst2~0_combout $end
$var wire 1 C inst|inst4|inst8~1_combout $end
$var wire 1 D inst|inst3|inst~combout $end
$var wire 1 E inst|inst4|inst14~0_combout $end
$var wire 1 F inst|inst4|inst3|inst3~0_combout $end
$var wire 1 G KEY~combout [3] $end
$var wire 1 H KEY~combout [2] $end
$var wire 1 I KEY~combout [1] $end
$var wire 1 J KEY~combout [0] $end
$var wire 1 K SW~combout [8] $end
$var wire 1 L SW~combout [7] $end
$var wire 1 M SW~combout [6] $end
$var wire 1 N SW~combout [5] $end
$var wire 1 O SW~combout [4] $end
$var wire 1 P SW~combout [3] $end
$var wire 1 Q SW~combout [2] $end
$var wire 1 R SW~combout [1] $end
$var wire 1 S SW~combout [0] $end
$upscope $end
$upscope $end
$enddefinitions $end
#0
$dumpvars
b0 !
b100100 "
0*
1)
1(
0'
0&
0%
0$
0#
x+
0,
1-
x.
1/
10
11
02
03
04
05
06
07
08
09
1:
0;
0<
0=
1>
0?
1@
0A
1B
0C
0D
0E
0F
0J
0I
0H
0G
0S
0R
1Q
0P
0O
1N
0M
0L
0K
$end
#2000000
b100100100 "
1K
0+
#4000000
b100100000 "
b100000000 "
b0 "
0Q
0N
0K
1+
0:
0@
0>
0B
1C
0(
0)
1#
#6000000
b100000000 "
1K
0+
#8000000
b100000010 "
b100000011 "
b110000011 "
b110100011 "
b10100011 "
1S
1R
1N
1L
0K
1+
16
1?
1@
1D
17
12
1=
0C
1>
1*
1'
1$
0#
1(
#10000000
b110100011 "
1K
0+
#12000000
b110100111 "
b110100110 "
b100100110 "
b100110 "
0S
1Q
0L
0K
1+
06
1:
0D
07
0>
1<
0=
1C
1E
1=
0*
0(
0'
0$
0C
1#
1%
1'
1$
0#
#14000000
b100100110 "
1K
0+
#16000000
b101100110 "
b101100010 "
b101100011 "
b111100011 "
b11100011 "
1S
0Q
1M
1L
0K
1+
16
0:
1;
1D
17
1F
0E
0=
1*
1&
0%
0'
0$
#18000000
b111100011 "
1K
0+
#20000000
b111110011 "
b111110001 "
b110110001 "
b110110101 "
b110110100 "
b10110100 "
0S
0R
1Q
1O
0M
0K
1+
06
0?
1:
15
0;
1B
02
1>
0<
1)
0F
1=
1(
0&
1'
1$
#22000000
b110110100 "
1K
0+
#24000000
b110111100 "
b110011100 "
b110001100 "
b111001100 "
b11001100 "
1P
0O
0N
1M
0K
1+
19
05
0@
1;
1F
1E
0=
07
0B
0>
1<
1C
0E
1=
1&
1%
0'
0$
0*
0)
0(
0C
1#
0%
1'
1$
0#
#26000000
b111001100 "
1K
0+
#28000000
b101001100 "
b101001110 "
b100001110 "
b1110 "
1R
0M
0L
0K
1+
1?
0;
0D
1B
1>
0<
0=
0F
1=
1)
1(
0'
0$
0&
1'
1$
#30000000
b100001110 "
1K
0+
#32000000
b100001010 "
b100001011 "
b100000011 "
b100010011 "
b100010001 "
b10001 "
1S
0R
0Q
0P
1O
0K
1+
16
0?
0:
09
15
1A
0B
0>
0=
1B
1C
0)
0(
0'
0$
0C
1)
1#
0#
#34000000
b100010001 "
1K
0+
#36000000
b110010001 "
b110010101 "
b110000101 "
b10000101 "
1Q
0O
1L
0K
1+
1:
05
1D
1>
0A
17
1=
0B
1(
1*
1'
1$
0)
#38000000
b110000101 "
1K
0+
#40000000
b111000101 "
b111001101 "
b101001101 "
b101001001 "
b101011001 "
b1011001 "
0Q
1P
1O
1M
0L
0K
1+
0:
19
15
1;
0D
1A
07
1B
0*
1)
#42000000
b101011001 "
1K
0+
#44000000
b101011000 "
b100011000 "
b100010000 "
b100010100 "
b10100 "
0S
1Q
0P
0M
0K
1+
06
1:
09
0;
0A
17
0=
0B
1*
0'
0$
0)
#46000000
b100010100 "
1K
0+
#48000000
b100110100 "
b110110100 "
b110100100 "
b110100101 "
b110101101 "
b110101001 "
b10101001 "
1S
0Q
1P
0O
1N
1L
0K
1+
16
0:
19
05
1@
1D
0>
1F
1E
1B
0(
1&
1%
1)
#50000000
b110101001 "
1K
0+
#52000000
b110101011 "
b111101011 "
b111111011 "
b111111111 "
b11111111 "
1R
1Q
1O
1M
0K
1+
1?
1:
15
1;
0B
12
1<
1A
07
1C
1>
0E
1=
1B
0)
0*
0C
1#
1(
0%
1'
1$
1)
0#
#54000000
b111111111 "
1K
0+
#56000000
b101111111 "
b101111110 "
b101111100 "
b101101100 "
b101101000 "
b1101000 "
0S
0R
0Q
0O
0L
0K
1+
06
0?
0:
05
0D
0A
0B
0>
0=
1B
02
1C
0)
0(
0'
0$
0C
1>
0<
1)
1#
0F
1=
0#
1(
0&
1'
1$
#58000000
b101101000 "
1K
0+
#60000000
b101100000 "
b100100000 "
b110100000 "
b110100010 "
b110100110 "
b10100110 "
1R
1Q
0P
0M
1L
0K
1+
1?
1:
09
0;
1D
0B
12
0>
1<
0)
1F
0=
0(
1C
1&
0'
0$
1#
#62000000
b110100110 "
1K
0+
