Projeto/memprog/simulation/qsim/memprog.msim.vcd
$comment
	File created using the following command:
		vcd file memprog.msim.vcd -direction
$end
$date
	Tue Nov 15 16:16:24 2022
$end
$version
	ModelSim Version 10.1d
$end
$timescale
	1ps
$end
$scope module memprog_vlg_vec_tst $end
$var reg 1 ! ENABLE $end
$var reg 6 " endrom [5:0] $end
$var reg 2 # SELBLCK [1:0] $end
$var wire 1 $ drom [7] $end
$var wire 1 % drom [6] $end
$var wire 1 & drom [5] $end
$var wire 1 ' drom [4] $end
$var wire 1 ( drom [3] $end
$var wire 1 ) drom [2] $end
$var wire 1 * drom [1] $end
$var wire 1 + drom [0] $end
$var wire 1 , sampler $end
$scope module i1 $end
$var wire 1 - gnd $end
$var wire 1 . vcc $end
$var wire 1 / unknown $end
$var tri1 1 0 devclrn $end
$var tri1 1 1 devpor $end
$var tri1 1 2 devoe $end
$var wire 1 3 inst3|inst8~4_combout $end
$var wire 1 4 inst2|32a47|inst241~2_combout $end
$var wire 1 5 inst2|32a47|inst240~1_combout $end
$var wire 1 6 inst3|48a63|inst771~9_combout $end
$var wire 1 7 inst3|48a63|inst771~10_combout $end
$var wire 1 8 inst3|48a63|inst773~4_combout $end
$var wire 1 9 inst3|48a63|inst773~5_combout $end
$var wire 1 : inst3|48a63|inst773~6_combout $end
$var wire 1 ; inst2|0a15|inst|inst23~combout $end
$var wire 1 < inst3|0a15|inst50~55_combout $end
$var wire 1 = inst3|0a15|inst50~56_combout $end
$var wire 1 > inst3|0a15|inst50~58_combout $end
$var wire 1 ? inst3|0a15|inst50~62_combout $end
$var wire 1 @ inst3|0a15|inst50~63_combout $end
$var wire 1 A inst3|48a63|inst771~15_combout $end
$var wire 1 B inst3|16a31|inst|inst24~combout $end
$var wire 1 C inst3|0a15|inst50~69_combout $end
$var wire 1 D inst2|32a47|inst241~5_combout $end
$var wire 1 E inst3|0a15|inst67~6_combout $end
$var wire 1 F inst3|0a15|inst67~7_combout $end
$var wire 1 G inst3|0a15|inst50~72_combout $end
$var wire 1 H inst2|16a31|inst|inst32~combout $end
$var wire 1 I inst3|48a63|inst771~16_combout $end
$var wire 1 J inst3|48a63|inst771~17_combout $end
$var wire 1 K inst3|48a63|inst771~18_combout $end
$var wire 1 L inst3|0a15|inst|inst31~combout $end
$var wire 1 M inst2|32a47|inst240~9_combout $end
$var wire 1 N inst2|32a47|inst241~11_combout $end
$var wire 1 O inst2|32a47|inst241~12_combout $end
$var wire 1 P inst3|48a63|inst771~21_combout $end
$var wire 1 Q inst3|48a63|inst771~22_combout $end
$var wire 1 R inst3|48a63|inst771~23_combout $end
$var wire 1 S inst3|48a63|inst771~24_combout $end
$var wire 1 T inst3|48a63|inst771~25_combout $end
$var wire 1 U inst3|48a63|inst771~26_combout $end
$var wire 1 V inst3|48a63|inst771~27_combout $end
$var wire 1 W inst2|32a47|inst240~11_combout $end
$var wire 1 X inst2|32a47|inst240~14_combout $end
$var wire 1 Y inst3|48a63|inst|inst25~combout $end
$var wire 1 Z inst3|0a15|inst50~6_combout $end
$var wire 1 [ inst3|0a15|inst50~5_combout $end
$var wire 1 \ inst3|0a15|inst50~12_combout $end
$var wire 1 ] inst3|0a15|inst50~17_combout $end
$var wire 1 ^ inst3|0a15|inst50~15_combout $end
$var wire 1 _ inst3|0a15|inst50~48_combout $end
$var wire 1 ` inst3|0a15|inst50~49_combout $end
$var wire 1 a inst3|inst8~6_combout $end
$var wire 1 b inst2|0a15|inst|inst5~13_combout $end
$var wire 1 c ENABLE~combout $end
$var wire 1 d inst3|inst5~0_combout $end
$var wire 1 e inst3|inst7~0_combout $end
$var wire 1 f inst3|0a15|inst50~68_combout $end
$var wire 1 g inst3|inst6~0_combout $end
$var wire 1 h inst2|0a15|inst|inst5~14_combout $end
$var wire 1 i inst2|32a47|inst240~5_combout $end
$var wire 1 j inst2|0a15|inst|inst5~0_combout $end
$var wire 1 k inst2|0a15|inst|inst5~15_combout $end
$var wire 1 l inst2|32a47|inst240~4_combout $end
$var wire 1 m inst2|0a15|inst|inst5~2_combout $end
$var wire 1 n inst2|32a47|inst240~6_combout $end
$var wire 1 o inst2|0a15|inst|inst5~9_combout $end
$var wire 1 p inst3|0a15|inst50~75_combout $end
$var wire 1 q inst3|inst5~1_combout $end
$var wire 1 r inst3|0a15|inst50~76_combout $end
$var wire 1 s inst2|inst6~0_combout $end
$var wire 1 t inst3|48a63|inst772~3_combout $end
$var wire 1 u inst3|0a15|inst50~77_combout $end
$var wire 1 v inst2|inst6~1_combout $end
$var wire 1 w inst2|0a15|inst|inst5~1_combout $end
$var wire 1 x inst4|inst7~0_combout $end
$var wire 1 y inst2|32a47|inst241~6_combout $end
$var wire 1 z inst2|0a15|inst|inst5~6_combout $end
$var wire 1 { inst2|32a47|inst241~7_combout $end
$var wire 1 | inst4|inst5~0_combout $end
$var wire 1 } inst2|32a47|inst241~8_combout $end
$var wire 1 ~ inst2|0a15|inst|inst5~3_combout $end
$var wire 1 !! inst|inst5~0_combout $end
$var wire 1 "! inst|inst5~1_combout $end
$var wire 1 #! inst3|0a15|inst50~71_combout $end
$var wire 1 $! inst2|0a15|inst|inst5~12_combout $end
$var wire 1 %! inst3|0a15|inst50~70_combout $end
$var wire 1 &! inst3|0a15|inst50~73_combout $end
$var wire 1 '! inst3|0a15|inst50~74_combout $end
$var wire 1 (! inst3|32a47|inst|inst32~combout $end
$var wire 1 )! inst3|0a15|inst50~78_combout $end
$var wire 1 *! inst2|32a47|inst241~4_combout $end
$var wire 1 +! inst2|0a15|inst|inst5~8_combout $end
$var wire 1 ,! inst3|0a15|inst50~53_combout $end
$var wire 1 -! inst2|0a15|inst|inst5~11_combout $end
$var wire 1 .! inst2|16a31|inst|inst26~combout $end
$var wire 1 /! inst2|32a47|inst240~3_combout $end
$var wire 1 0! inst3|0a15|inst50~54_combout $end
$var wire 1 1! inst2|0a15|inst|inst5~10_combout $end
$var wire 1 2! inst3|48a63|inst771~13_combout $end
$var wire 1 3! inst3|0a15|inst50~57_combout $end
$var wire 1 4! inst3|0a15|inst50~59_combout $end
$var wire 1 5! inst3|0a15|inst50~60_combout $end
$var wire 1 6! inst2|0a15|inst|inst5~7_combout $end
$var wire 1 7! inst3|0a15|inst50~65_combout $end
$var wire 1 8! inst3|0a15|inst50~61_combout $end
$var wire 1 9! inst3|48a63|inst771~14_combout $end
$var wire 1 :! inst3|0a15|inst50~41_combout $end
$var wire 1 ;! inst3|0a15|inst50~38_combout $end
$var wire 1 <! inst3|0a15|inst50~83_combout $end
$var wire 1 =! inst3|0a15|inst50~64_combout $end
$var wire 1 >! inst3|0a15|inst50~66_combout $end
$var wire 1 ?! inst3|0a15|inst50~67_combout $end
$var wire 1 @! inst3|0a15|inst50~79_combout $end
$var wire 1 A! inst3|0a15|inst50~80_combout $end
$var wire 1 B! inst2|0a15|inst|inst5~4_combout $end
$var wire 1 C! inst3|48a63|inst771~29_combout $end
$var wire 1 D! inst3|48a63|inst771~30_combout $end
$var wire 1 E! inst2|0a15|inst|inst5~5_combout $end
$var wire 1 F! inst3|48a63|inst771~28_combout $end
$var wire 1 G! inst2|inst8~0_combout $end
$var wire 1 H! inst4|inst8~4_combout $end
$var wire 1 I! inst3|48a63|inst771~31_combout $end
$var wire 1 J! inst3|48a63|inst771~42_combout $end
$var wire 1 K! inst3|48a63|inst771~32_combout $end
$var wire 1 L! inst3|48a63|inst771~19_combout $end
$var wire 1 M! inst3|48a63|inst782~1_combout $end
$var wire 1 N! inst3|48a63|inst771~20_combout $end
$var wire 1 O! inst3|48a63|inst771~33_combout $end
$var wire 1 P! inst3|48a63|inst772~5_combout $end
$var wire 1 Q! inst3|0a15|inst50~81_combout $end
$var wire 1 R! inst3|0a15|inst50~13_combout $end
$var wire 1 S! inst3|0a15|inst50~25_combout $end
$var wire 1 T! inst3|0a15|inst50~84_combout $end
$var wire 1 U! inst3|0a15|inst50~7_combout $end
$var wire 1 V! inst3|0a15|inst50~85_combout $end
$var wire 1 W! inst3|0a15|inst50~28_combout $end
$var wire 1 X! inst3|0a15|inst50~31_combout $end
$var wire 1 Y! inst3|0a15|inst50~51_combout $end
$var wire 1 Z! inst3|0a15|inst50~82_combout $end
$var wire 1 [! inst3|48a63|inst771~7_combout $end
$var wire 1 \! inst3|48a63|inst771~11_combout $end
$var wire 1 ]! inst3|48a63|inst771~40_combout $end
$var wire 1 ^! inst3|48a63|inst771~8_combout $end
$var wire 1 _! inst2|32a47|inst241~1_combout $end
$var wire 1 `! inst2|32a47|inst241~3_combout $end
$var wire 1 a! inst3|48a63|inst771~12_combout $end
$var wire 1 b! inst3|48a63|inst771~41_combout $end
$var wire 1 c! inst3|48a63|inst771~36_combout $end
$var wire 1 d! inst3|48a63|inst771~37_combout $end
$var wire 1 e! inst3|48a63|inst771~38_combout $end
$var wire 1 f! inst3|48a63|inst771~39_combout $end
$var wire 1 g! inst3|48a63|inst772~4_combout $end
$var wire 1 h! inst2|32a47|inst240~12_combout $end
$var wire 1 i! inst2|32a47|inst240~13_combout $end
$var wire 1 j! inst3|48a63|inst773~7_combout $end
$var wire 1 k! inst3|48a63|inst773~3_combout $end
$var wire 1 l! inst3|48a63|inst773~8_combout $end
$var wire 1 m! inst3|48a63|inst773~10_combout $end
$var wire 1 n! inst3|48a63|inst773~9_combout $end
$var wire 1 o! inst4|inst6~0_combout $end
$var wire 1 p! inst2|32a47|inst240~7_combout $end
$var wire 1 q! inst3|inst8~5_combout $end
$var wire 1 r! inst2|32a47|inst240~8_combout $end
$var wire 1 s! inst3|48a63|inst782~2_combout $end
$var wire 1 t! inst3|48a63|inst782~3_combout $end
$var wire 1 u! inst3|48a63|inst782~4_combout $end
$var wire 1 v! inst3|48a63|inst782~5_combout $end
$var wire 1 w! inst3|48a63|inst782~6_combout $end
$var wire 1 x! inst3|0a15|inst67~9_combout $end
$var wire 1 y! inst3|0a15|inst67~8_combout $end
$var wire 1 z! inst3|0a15|inst67~10_combout $end
$var wire 1 {! inst3|0a15|inst67~1_combout $end
$var wire 1 |! inst3|0a15|inst67~2_combout $end
$var wire 1 }! inst2|inst5~0_combout $end
$var wire 1 ~! inst3|0a15|inst67~3_combout $end
$var wire 1 !" inst3|0a15|inst67~4_combout $end
$var wire 1 "" inst3|0a15|inst67~5_combout $end
$var wire 1 #" inst3|0a15|inst67~11_combout $end
$var wire 1 $" inst3|48a63|inst771~34_combout $end
$var wire 1 %" inst2|32a47|inst240~10_combout $end
$var wire 1 &" inst2|32a47|inst240~2_combout $end
$var wire 1 '" inst2|32a47|inst240~15_combout $end
$var wire 1 (" inst2|32a47|inst240~16_combout $end
$var wire 1 )" inst3|48a63|inst771~35_combout $end
$var wire 1 *" inst2|32a47|inst241~10_combout $end
$var wire 1 +" inst2|32a47|inst241~9_combout $end
$var wire 1 ," inst2|32a47|inst241~13_combout $end
$var wire 1 -" inst2|32a47|inst241~14_combout $end
$var wire 1 ." inst2|32a47|inst241~15_combout $end
$var wire 1 /" endrom~combout [5] $end
$var wire 1 0" endrom~combout [4] $end
$var wire 1 1" endrom~combout [3] $end
$var wire 1 2" endrom~combout [2] $end
$var wire 1 3" endrom~combout [1] $end
$var wire 1 4" endrom~combout [0] $end
$var wire 1 5" SELBLCK~combout [1] $end
$var wire 1 6" SELBLCK~combout [0] $end
$upscope $end
$upscope $end
$enddefinitions $end
#0
$dumpvars
1!
b0 "
b0 #
1+
0*
1)
0(
0'
0&
1%
0$
x,
0-
1.
x/
10
11
12
03
14
15
16
17
18
19
1:
0;
1<
1=
1>
0?
1@
1A
0B
1C
1D
1E
1F
1G
0H
1I
1J
1K
0L
1M
1N
1O
1P
1Q
1R
1S
1T
1U
1V
1W
1X
0Y
1Z
1[
1\
1]
1^
1_
1`
0a
0b
1c
0d
0e
1f
0g
0h
1i
0j
1k
1l
0m
1n
0o
1p
0q
1r
0s
1t
1u
0v
0w
0x
1y
0z
1{
0|
1}
0~
1!!
1"!
1#!
0$!
1%!
1&!
1'!
0(!
1)!
1*!
0+!
1,!
0-!
0.!
0/!
00!
01!
12!
03!
14!
15!
06!
17!
18!
19!
1:!
1;!
1<!
1=!
1>!
0?!
0@!
0A!
0B!
1C!
1D!
0E!
1F!
0G!
0H!
1I!
1J!
1K!
1L!
1M!
1N!
1O!
1P!
1Q!
1R!
1S!
1T!
1U!
1V!
1W!
0X!
1Y!
1Z!
1[!
1\!
1]!
1^!
1_!
1`!
1a!
1b!
1c!
1d!
1e!
1f!
0g!
1h!
1i!
1j!
1k!
1l!
0m!
0n!
0o!
1p!
0q!
1r!
1s!
1t!
1u!
1v!
0w!
1x!
1y!
1z!
1{!
1|!
0}!
1~!
1!"
1""
1#"
1$"
1%"
1&"
0'"
0("
1)"
1*"
1+"
1,"
1-"
1."
04"
03"
02"
01"
00"
0/"
06"
05"
$end
#250000
b1 "
14"
0,
0k
1h
0c!
0d!
0e!
0f!
0%
#500000
b11 "
b10 "
04"
13"
1,
0:!
0h
1b
0;!
1c!
1/!
0*!
1d!
1'"
10!
0,"
1e!
1("
0-"
1f!
0."
1*
1%
0+
#750000
b11 "
14"
0,
1:!
1$!
0b
1;!
0]!
1*!
0a!
1,"
13!
0l!
0e!
1-"
1m!
1?!
0""
0f!
1."
1w!
1g!
0Q!
1@!
0#"
0?!
z%
z+
z(
z&
z*
z)
z'
z$
0w!
0g!
1Q!
0@!
0(
0&
1+
1*
0)
0'
0%
0$
#1000000
b1 #
b1 "
b0 "
04"
03"
16"
1,
0$!
1k
1X!
0S!
0!!
1s
0]
1]!
0/!
0"!
1}!
1a!
0'"
00!
1/!
0<
1l!
1e!
0("
03!
1'"
10!
0=
1""
1n!
1f!
0m!
1("
0*
1#"
0n!
1'
1%
1*
1)
0'
#1250000
b1 "
14"
0,
0k
1h
0^
1<
0i
1=
0n
13!
0P!
0u
0W
1m!
1?!
0#"
0)!
0h!
1n!
1w!
0."
0i!
0)
0("
0n!
1'
1(
0+
0*
0'
#1500000
b11 "
b10 "
04"
13"
1,
0:!
0h
1b
1^
0T!
0;!
1i
0~!
1n
0!"
1P!
1u
1W
0$"
0""
1g!
0Q!
1)!
1h!
0)"
0?!
1i!
0e!
0w!
0g!
1Q!
z&
z+
z*
z)
z(
z'
z%
z$
1n!
0f!
0(
0&
0+
0*
0)
0'
1%
0$
1'
0%
#1750000
b11 "
14"
0,
0V!
1:!
1$!
0b
0^
0Y!
1;!
1;
1~!
0W
1!"
0h!
1$"
0i!
1)"
1("
0("
0n!
1e!
1*
1f!
0*
0'
1%
#2000000
b11 #
b10 #
b1 "
b0 "
04"
03"
06"
15"
1,
1V!
0$!
1k
1^
1T!
1S!
0s
1]
1d
1Y!
0;
0<
0}!
1q
1""
1W
0=
1<
0K
1#"
1?!
1h!
03!
1=
0s!
0N!
1w!
1g!
0Q!
1@!
1."
1i!
0m!
0?!
13!
0t!
0h!
0O!
1)
1("
0w!
0g!
1Q!
0@!
1m!
1?!
0#"
0."
0i!
0f!
z(
z&
z+
z*
z)
z'
z%
z$
1@!
0("
1*
0(
0&
0+
0)
0'
0%
0$
1$
0*
#2250000
b1 "
14"
0,
0k
1h
1K
07
1s!
1N!
0a!
1t!
1h!
1O!
0l!
0e!
1#"
1w!
1."
1i!
1g!
0Q!
0""
1("
0#"
0?!
z)
z(
z+
z&
z*
z'
z%
z$
0w!
0g!
1Q!
0@!
0(
0&
1+
1*
0)
0'
0%
0$
#2500000
b11 "
b10 "
04"
13"
1,
0:!
0h
1b
0;!
17
0V
1a!
0F!
1l!
1e!
0K!
1""
1f!
0O!
1#"
1?!
0f!
1%
1w!
1@!
1)
0%
1(
1$
#2750000
b11 "
14"
0,
1:!
1$!
0b
1;!
0%!
1V
0&!
1F!
0("
0'!
1K!
0)!
1n!
0*
0@!
1'
0$
#3000000
b11 #
b1 "
b0 "
04"
03"
16"
1,
0$!
1k
0S!
1|
0q
1%!
0}
0."
0+
#3250000
b1 "
14"
0,
0k
1h
1}
0G
1."
1+
#3500000
b11 "
b10 "
04"
13"
1,
0:!
0h
1b
0T!
0;!
1G
0@
1&!
0=!
1("
1'!
0h!
0>!
1O!
1)!
0."
0i!
0?!
1*
1f!
0("
0n!
0w!
0+
1%
0*
0'
0(
#3750000
b11 "
14"
0,
0V!
1:!
1$!
0b
0Y!
1;!
0`!
1@
0-"
0a!
1=!
0l!
0e!
1h!
1>!
0""
0f!
1i!
1?!
0#"
0?!
1("
1w!
1g!
0Q!
1@!
0%
0w!
0g!
1Q!
0@!
z)
z*
z(
z&
z+
z'
z%
z$
0(
0&
0+
1*
0)
0'
0%
0$
