Lab1/projeto2/simulation/qsim/projeto2.msim.vcd
$comment
	File created using the following command:
		vcd file projeto2.msim.vcd -direction
$end
$date
	Sat Aug 27 22:04:22 2022
$end
$version
	ModelSim Version 10.1d
$end
$timescale
	1ps
$end
$scope module projeto2_vlg_vec_tst $end
$var reg 7 ! SW [6:0] $end
$var wire 1 " LEDR [0] $end
$var wire 1 # sampler $end
$scope module i1 $end
$var wire 1 $ gnd $end
$var wire 1 % vcc $end
$var wire 1 & unknown $end
$var tri1 1 ' devclrn $end
$var tri1 1 ( devpor $end
$var tri1 1 ) devoe $end
$var wire 1 * inst13~1_combout $end
$var wire 1 + inst13~0_combout $end
$var wire 1 , inst13~2_combout $end
$var wire 1 - SW~combout [6] $end
$var wire 1 . SW~combout [5] $end
$var wire 1 / SW~combout [4] $end
$var wire 1 0 SW~combout [3] $end
$var wire 1 1 SW~combout [2] $end
$var wire 1 2 SW~combout [1] $end
$var wire 1 3 SW~combout [0] $end
$upscope $end
$upscope $end
$enddefinitions $end
#0
$dumpvars
b0 !
x"
x#
0$
1%
x&
1'
1(
1)
x*
x+
x,
03
02
01
00
0/
0.
0-
$end
#1348
0*
#1694
0+
#2160
0,
#7549
0"
#62500
b1 !
0#
#63526
13
#125000
b11 !
b10 !
1#
#126026
12
03
#187500
b11 !
0#
#188526
13
#250000
b111 !
b101 !
b100 !
1#
#251026
02
03
#251036
11
#312500
b101 !
0#
#313526
13
#375000
b111 !
b110 !
1#
#376026
12
03
#437500
b111 !
0#
#438526
13
#500000
b1111 !
b1011 !
b1001 !
b1000 !
1#
#501006
10
#501026
02
03
#501036
01
#562500
b1001 !
0#
#563526
13
#625000
b1011 !
b1010 !
1#
#626026
12
03
#687500
b1011 !
0#
#688526
13
#750000
b1111 !
b1101 !
b1100 !
1#
#751026
02
03
#751036
11
#812500
b1101 !
0#
#813526
13
#875000
b1111 !
b1110 !
1#
#876026
12
03
#937500
b1111 !
0#
#938526
13
#1000000
b11111 !
b10111 !
b10011 !
b10001 !
b10000 !
1#
#1001006
1/
00
#1001026
02
03
#1001036
01
#1062500
b10001 !
0#
#1063526
13
#1125000
b10011 !
b10010 !
1#
#1126026
12
03
#1187500
b10011 !
0#
#1188526
13
#1250000
b10111 !
b10101 !
b10100 !
1#
#1251026
02
03
#1251036
11
#1312500
b10101 !
0#
#1313526
13
#1375000
b10111 !
b10110 !
1#
#1376026
12
03
#1437500
b10111 !
0#
#1438526
13
#1500000
b11111 !
b11011 !
b11001 !
b11000 !
1#
#1501006
10
#1501026
02
03
#1501036
01
#1562500
b11001 !
0#
#1563526
13
#1625000
b11011 !
b11010 !
1#
#1626026
12
03
#1687500
b11011 !
0#
#1688526
13
#1750000
b11111 !
b11101 !
b11100 !
1#
#1751026
02
03
#1751036
11
#1812500
b11101 !
0#
#1813526
13
#1875000
b11111 !
b11110 !
1#
#1876026
12
03
#1937500
b11111 !
0#
#1938526
13
#2000000
b111111 !
b101111 !
b100111 !
b100011 !
b100001 !
b100000 !
1#
#2001006
1.
0/
00
#2001026
02
03
#2001036
01
#2062500
b100001 !
0#
#2063526
13
#2125000
b100011 !
b100010 !
1#
#2126026
12
03
#2187500
b100011 !
0#
#2188526
13
#2250000
b100111 !
b100101 !
b100100 !
1#
#2251026
02
03
#2251036
11
#2312500
b100101 !
0#
#2313526
13
#2375000
b100111 !
b100110 !
1#
#2376026
12
03
#2437500
b100111 !
0#
#2438526
13
#2500000
b101111 !
b101011 !
b101001 !
b101000 !
1#
#2501006
10
#2501026
02
03
#2501036
01
#2562500
b101001 !
0#
#2563526
13
#2625000
b101011 !
b101010 !
1#
#2626026
12
03
#2687500
b101011 !
0#
#2688526
13
#2750000
b101111 !
b101101 !
b101100 !
1#
#2751026
02
03
#2751036
11
#2812500
b101101 !
0#
#2813526
13
#2875000
b101111 !
b101110 !
1#
#2876026
12
03
#2937500
b101111 !
0#
#2938526
13
#3000000
b111111 !
b110111 !
b110011 !
b110001 !
b110000 !
1#
#3001006
1/
00
#3001026
02
03
#3001036
01
#3062500
b110001 !
0#
#3063526
13
#3125000
b110011 !
b110010 !
1#
#3126026
12
03
#3187500
b110011 !
0#
#3188526
13
#3250000
b110111 !
b110101 !
b110100 !
1#
#3251026
02
03
#3251036
11
#3312500
b110101 !
0#
#3313526
13
#3375000
b110111 !
b110110 !
1#
#3376026
12
03
#3437500
b110111 !
0#
#3438526
13
#3500000
b111111 !
b111011 !
b111001 !
b111000 !
1#
#3501006
10
#3501026
02
03
#3501036
01
#3562500
b111001 !
0#
#3563526
13
#3625000
b111011 !
b111010 !
1#
#3626026
12
03
#3687500
b111011 !
0#
#3688526
13
#3750000
b111111 !
b111101 !
b111100 !
1#
#3751026
02
03
#3751036
11
#3812500
b111101 !
0#
#3813526
13
#3875000
b111111 !
b111110 !
1#
#3876026
12
03
#3937500
b111111 !
0#
#3938526
13
#4000000
b1111111 !
b1011111 !
b1001111 !
b1000111 !
b1000011 !
b1000001 !
b1000000 !
1#
#4001006
1-
0.
0/
00
#4001026
02
03
#4001036
01
#4002354
1*
#4002765
1+
#4003099
0+
#4003166
1,
#4003633
0*
#4004445
0,
#4062500
b1000001 !
0#
#4063526
13
#4066133
1*
#4066945
1,
#4072334
1"
#4125000
b1000011 !
b1000010 !
1#
#4126026
12
03
#4128633
0*
#4129445
0,
#4134834
0"
#4187500
b1000011 !
0#
#4188526
13
#4191133
1*
#4191945
1,
#4197334
1"
#4250000
b1000111 !
b1000101 !
b1000100 !
1#
#4251026
02
03
#4251036
11
#4253099
1+
#4253633
0*
#4254445
0,
#4259834
0"
#4312500
b1000101 !
0#
#4313526
13
#4316133
1*
#4316945
1,
#4322334
1"
#4375000
b1000111 !
b1000110 !
1#
#4376026
12
03
#4378633
0*
#4379445
0,
#4384834
0"
#4437500
b1000111 !
0#
#4438526
13
#4441133
1*
#4441945
1,
#4447334
1"
#4500000
b1001111 !
b1001011 !
b1001001 !
b1001000 !
1#
#4501006
10
#4501026
02
03
#4501036
01
#4503099
0+
#4503633
0*
#4504445
0,
#4509834
0"
#4562500
b1001001 !
0#
#4563526
13
#4566133
1*
#4566945
1,
#4572334
1"
#4625000
b1001011 !
b1001010 !
1#
#4626026
12
03
#4628633
0*
#4629445
0,
#4634834
0"
#4687500
b1001011 !
0#
#4688526
13
#4691133
1*
#4691945
1,
#4697334
1"
#4750000
b1001111 !
b1001101 !
b1001100 !
1#
#4751026
02
03
#4751036
11
#4753099
1+
#4753633
0*
#4754445
0,
#4759834
0"
#4812500
b1001101 !
0#
#4813526
13
#4816133
1*
#4816945
1,
#4822334
1"
#4875000
b1001111 !
b1001110 !
1#
#4876026
12
03
#4878633
0*
#4879445
0,
#4884834
0"
#4937500
b1001111 !
0#
#4938526
13
#4941133
1*
#4941945
1,
#4947334
1"
#5000000
b1011111 !
b1010111 !
b1010011 !
b1010001 !
b1010000 !
1#
#5001006
1/
00
#5001026
02
03
#5001036
01
#5002765
0+
#5002996
0*
#5003808
0,
#5009197
0"
#5062500
b1010001 !
0#
#5063526
13
#5125000
b1010011 !
b1010010 !
1#
#5126026
12
03
#5127996
1*
#5128808
1,
#5134197
1"
#5187500
b1010011 !
0#
#5188526
13
#5250000
b1010111 !
b1010101 !
b1010100 !
1#
#5251026
02
03
#5251036
11
#5252996
0*
#5253808
0,
#5259197
0"
#5312500
b1010101 !
0#
#5313526
13
#5375000
b1010111 !
b1010110 !
1#
#5376026
12
03
#5377996
1*
#5378808
1,
#5384197
1"
#5437500
b1010111 !
0#
#5438526
13
#5500000
b1011111 !
b1011011 !
b1011001 !
b1011000 !
1#
#5501006
10
#5501026
02
03
#5501036
01
#5502479
1+
#5502996
0*
#5503808
0,
#5509197
0"
#5562500
b1011001 !
0#
#5563526
13
#5625000
b1011011 !
b1011010 !
1#
#5626026
12
03
#5627996
1*
#5628808
1,
#5634197
1"
#5687500
b1011011 !
0#
#5688526
13
#5750000
b1011111 !
b1011101 !
b1011100 !
1#
#5751026
02
03
#5751036
11
#5752996
0*
#5753808
0,
#5759197
0"
#5812500
b1011101 !
0#
#5813526
13
#5875000
b1011111 !
b1011110 !
1#
#5876026
12
03
#5877996
1*
#5878808
1,
#5884197
1"
#5937500
b1011111 !
0#
#5938526
13
#6000000
b1111111 !
b1101111 !
b1100111 !
b1100011 !
b1100001 !
b1100000 !
1#
#6001006
1.
0/
00
#6001026
02
03
#6001036
01
#6003099
0+
#6003564
0,
#6003633
0*
#6008953
0"
#6062500
b1100001 !
0#
#6063526
13
#6066133
1*
#6125000
b1100011 !
b1100010 !
1#
#6126026
12
03
#6128633
0*
#6187500
b1100011 !
0#
#6188526
13
#6191133
1*
#6250000
b1100111 !
b1100101 !
b1100100 !
1#
#6251026
02
03
#6251036
11
#6253099
1+
#6253564
1,
#6253633
0*
#6258953
1"
#6312500
b1100101 !
0#
#6313526
13
#6316133
1*
#6375000
b1100111 !
b1100110 !
1#
#6376026
12
03
#6378633
0*
#6437500
b1100111 !
0#
#6438526
13
#6441133
1*
#6500000
b1101111 !
b1101011 !
b1101001 !
b1101000 !
1#
#6501006
10
#6501026
02
03
#6501036
01
#6503099
0+
#6503564
0,
#6503633
0*
#6508953
0"
#6562500
b1101001 !
0#
#6563526
13
#6566133
1*
#6625000
b1101011 !
b1101010 !
1#
#6626026
12
03
#6628633
0*
#6687500
b1101011 !
0#
#6688526
13
#6691133
1*
#6750000
b1101111 !
b1101101 !
b1101100 !
1#
#6751026
02
03
#6751036
11
#6753099
1+
#6753564
1,
#6753633
0*
#6758953
1"
#6812500
b1101101 !
0#
#6813526
13
#6816133
1*
#6875000
b1101111 !
b1101110 !
1#
#6876026
12
03
#6878633
0*
#6937500
b1101111 !
0#
#6938526
13
#6941133
1*
#7000000
b1111111 !
b1110111 !
b1110011 !
b1110001 !
b1110000 !
1#
#7001006
1/
00
#7001026
02
03
#7001036
01
#7002765
0+
#7002996
0*
#7003230
0,
#7008619
0"
#7062500
b1110001 !
0#
#7063526
13
#7125000
b1110011 !
b1110010 !
1#
#7126026
12
03
#7127996
1*
#7187500
b1110011 !
0#
#7188526
13
#7250000
b1110111 !
b1110101 !
b1110100 !
1#
#7251026
02
03
#7251036
11
#7252996
0*
#7312500
b1110101 !
0#
#7313526
13
#7375000
b1110111 !
b1110110 !
1#
#7376026
12
03
#7377996
1*
#7437500
b1110111 !
0#
#7438526
13
#7500000
b1111111 !
b1111011 !
b1111001 !
b1111000 !
1#
#7501006
10
#7501026
02
03
#7501036
01
#7502479
1+
#7502944
1,
#7502996
0*
#7508333
1"
#7562500
b1111001 !
0#
#7563526
13
#7625000
b1111011 !
b1111010 !
1#
#7626026
12
03
#7627996
1*
#7687500
b1111011 !
0#
#7688526
13
#7750000
b1111111 !
b1111101 !
b1111100 !
1#
#7751026
02
03
#7751036
11
#7752996
0*
#7812500
b1111101 !
0#
#7813526
13
#7875000
b1111111 !
b1111110 !
1#
#7876026
12
03
#7877996
1*
#7937500
b1111111 !
0#
#7938526
13
#8000000
b111111 !
b11111 !
b1111 !
b111 !
b11 !
b1 !
b0 !
1#
#8001006
0-
0.
0/
00
#8001026
02
03
#8001036
01
#8002354
0*
#8002479
0+
#8003166
0,
