Lab5/Circuito_de_teste_RAM/simulation/qsim/teste_RAM.msim.vcd
$comment
	File created using the following command:
		vcd file teste_RAM.msim.vcd -direction
$end
$date
	Thu Oct 20 16:21:58 2022
$end
$version
	ModelSim Version 10.1d
$end
$timescale
	1ps
$end
$scope module teste_RAM_vlg_vec_tst $end
$var reg 1 ! KEY [0:0] $end
$var wire 1 " HEX0 [6] $end
$var wire 1 # HEX0 [5] $end
$var wire 1 $ HEX0 [4] $end
$var wire 1 % HEX0 [3] $end
$var wire 1 & HEX0 [2] $end
$var wire 1 ' HEX0 [1] $end
$var wire 1 ( HEX0 [0] $end
$var wire 1 ) HEX1 [6] $end
$var wire 1 * HEX1 [5] $end
$var wire 1 + HEX1 [4] $end
$var wire 1 , HEX1 [3] $end
$var wire 1 - HEX1 [2] $end
$var wire 1 . HEX1 [1] $end
$var wire 1 / HEX1 [0] $end
$var wire 1 0 LEDG [0] $end
$var wire 1 1 sampler $end
$scope module i1 $end
$var wire 1 2 gnd $end
$var wire 1 3 vcc $end
$var wire 1 4 unknown $end
$var tri1 1 5 devclrn $end
$var tri1 1 6 devpor $end
$var tri1 1 7 devoe $end
$var wire 1 8 KEY[0]~clkctrl_outclk $end
$var wire 1 9 inst2|inst3~0_combout $end
$var wire 1 : inst2|inst3~regout $end
$var wire 1 ; inst2|inst2~0_combout $end
$var wire 1 < inst2|inst2~regout $end
$var wire 1 = inst2|inst1~0_combout $end
$var wire 1 > inst2|inst1~regout $end
$var wire 1 ? inst|inst5|inst5~0_combout $end
$var wire 1 @ inst6~0_combout $end
$var wire 1 A inst6~regout $end
$var wire 1 B inst2|inst~0_combout $end
$var wire 1 C inst2|inst~regout $end
$var wire 1 D inst5|inst8~2_combout $end
$var wire 1 E inst5|inst8~3_combout $end
$var wire 1 F inst5|inst1~2_combout $end
$var wire 1 G inst5|inst1~3_combout $end
$var wire 1 H inst5|inst16~2_combout $end
$var wire 1 I inst5|inst16~3_combout $end
$var wire 1 J inst5|inst21~2_combout $end
$var wire 1 K inst5|inst21~3_combout $end
$var wire 1 L inst5|inst25~2_combout $end
$var wire 1 M inst5|inst25~3_combout $end
$var wire 1 N inst5|inst30~2_combout $end
$var wire 1 O inst5|inst30~3_combout $end
$var wire 1 P inst5|inst35~2_combout $end
$var wire 1 Q inst5|inst35~3_combout $end
$var wire 1 R inst4|inst8~0_combout $end
$var wire 1 S inst4|inst1~0_combout $end
$var wire 1 T inst4|inst16~0_combout $end
$var wire 1 U inst4|inst21~0_combout $end
$var wire 1 V inst4|inst25~0_combout $end
$var wire 1 W inst4|inst30~0_combout $end
$var wire 1 X inst4|inst35~0_combout $end
$var wire 1 Y KEY~combout [0] $end
$upscope $end
$upscope $end
$enddefinitions $end
#0
$dumpvars
b0 !
0(
0'
0&
0%
0$
0#
1"
0/
0.
0-
0,
0+
0*
1)
10
x1
02
13
x4
15
16
17
08
19
0:
0;
0<
0=
0>
0?
0@
0A
0B
0C
0D
1E
0F
0G
0H
0I
1J
0K
1L
0M
1N
0O
0P
0Q
1R
0S
0T
0U
0V
0W
0X
0Y
$end
#125000
b1 !
1Y
18
01
1:
1X
1U
1T
1S
0J
1;
09
1/
1,
1+
1*
#250000
b0 !
0Y
08
11
#375000
b1 !
1Y
18
01
1<
0:
0X
1V
0U
0T
0R
1P
0N
0L
1F
19
0/
1-
0,
0+
0)
#500000
b0 !
0Y
08
11
#625000
b1 !
1Y
18
01
1:
0V
1T
0P
1N
1L
0F
1D
1=
0;
09
0-
1+
#750000
b0 !
0Y
08
11
#875000
b1 !
1Y
18
01
1>
0<
0:
1X
1U
0S
1P
0L
0D
19
1/
1,
0*
#1000000
b0 !
0Y
08
11
#1125000
b1 !
1Y
18
01
1:
0X
1W
0U
0P
0N
1J
1;
09
0/
1.
0,
#1250000
b0 !
0Y
08
11
#1375000
b1 !
1Y
18
01
1<
0:
0T
1H
19
0+
#1500000
b0 !
0Y
08
11
#1625000
b1 !
1Y
18
01
1:
0W
1U
1T
1S
1R
0J
0H
1B
0=
0;
09
0.
1,
1+
1*
1)
#1750000
b0 !
0Y
08
11
#1875000
b1 !
1Y
18
01
1C
0>
0<
0:
0U
0T
0S
0R
1J
1H
1F
1D
19
0,
0+
0*
0)
#2000000
b0 !
0Y
08
11
#2125000
b1 !
1Y
18
01
1:
1U
1T
1N
0J
0H
0F
0D
1;
09
1,
1+
#2250000
b0 !
0Y
08
11
#2375000
b1 !
1Y
18
01
1<
0:
0T
1H
19
0+
#2500000
b0 !
0Y
08
11
#2625000
b1 !
1Y
18
01
1:
1X
1W
0U
1P
0N
1J
1=
0;
09
1/
1.
0,
#2750000
b0 !
0Y
08
11
#2875000
b1 !
1Y
18
01
1>
0<
0:
0X
1V
1R
0P
0J
1F
19
0/
1-
1)
#3000000
b0 !
0Y
08
11
#3125000
b1 !
1Y
18
01
1:
1X
0W
0V
1S
0R
1L
0H
1;
09
1/
0.
0-
1*
0)
#3250000
b0 !
0Y
08
11
#3375000
b1 !
1Y
18
01
1<
0:
0X
1W
1V
0S
1P
0L
1J
1H
1D
19
0/
1.
1-
0*
#3500000
b0 !
0Y
08
11
#3625000
b1 !
1Y
18
01
1:
1U
0P
0J
0H
0F
0B
1?
0=
0;
09
1@
1,
#3750000
b0 !
0Y
08
11
#3875000
b1 !
1Y
18
01
0C
1A
0>
0<
0:
0W
0V
0U
1R
1N
1L
1J
0D
0?
0@
19
00
1O
1M
1K
0E
1@
0.
0-
0,
1)
1'
1&
1%
0"
#4000000
b0 !
0Y
08
11
#4125000
b1 !
1Y
18
01
1:
1X
1U
1T
1S
0J
1;
09
0K
1/
1,
1+
1*
0%
#4250000
b0 !
0Y
08
11
#4375000
b1 !
1Y
18
01
1<
0:
0X
1V
0U
0T
0R
1P
0N
0L
1F
19
1Q
0O
0M
1G
0/
1-
0,
0+
0)
1(
0'
0&
1#
#4500000
b0 !
0Y
08
11
#4625000
b1 !
1Y
18
01
1:
0V
1T
0P
1N
1L
0F
1D
1=
0;
09
0Q
1O
1M
0G
1E
0-
1+
0(
1'
1&
0#
1"
#4750000
b0 !
0Y
08
11
#4875000
b1 !
1Y
18
01
1>
0<
0:
1X
1U
0S
1P
0L
0D
19
1Q
0M
0E
1/
1,
0*
1(
0&
0"
#5000000
b0 !
0Y
08
11
#5125000
b1 !
1Y
18
01
1:
0X
1W
0U
0P
0N
1J
1;
09
0Q
0O
1K
0/
1.
0,
0(
0'
1%
#5250000
b0 !
0Y
08
11
#5375000
b1 !
1Y
18
01
1<
0:
0T
1H
19
1I
0+
1$
#5500000
b0 !
0Y
08
11
#5625000
b1 !
1Y
18
01
1:
0W
1U
1T
1S
1R
0J
0H
1B
0=
0;
09
0K
0I
0.
1,
1+
1*
1)
0%
0$
#5750000
b0 !
0Y
08
11
#5875000
b1 !
1Y
18
01
1C
0>
0<
0:
0U
0T
0S
0R
1J
1H
1F
1D
19
1K
1I
1G
1E
0,
0+
0*
0)
1%
1$
1#
1"
#6000000
b0 !
0Y
08
11
#6125000
b1 !
1Y
18
01
1:
1U
1T
1N
0J
0H
0F
0D
1;
09
1O
0K
0I
0G
0E
1,
1+
1'
0%
0$
0#
0"
#6250000
b0 !
0Y
08
11
#6375000
b1 !
1Y
18
01
1<
0:
0T
1H
19
1I
0+
1$
#6500000
b0 !
0Y
08
11
#6625000
b1 !
1Y
18
01
1:
1X
1W
0U
1P
0N
1J
1=
0;
09
1Q
0O
1K
1/
1.
0,
1(
0'
1%
#6750000
b0 !
0Y
08
11
#6875000
b1 !
1Y
18
01
1>
0<
0:
0X
1V
1R
0P
0J
1F
19
0Q
0K
1G
0/
1-
1)
0(
0%
1#
#7000000
b0 !
0Y
08
11
#7125000
b1 !
1Y
18
01
1:
1X
0W
0V
1S
0R
1L
0H
1;
09
1M
0I
1/
0.
0-
1*
0)
1&
0$
#7250000
b0 !
0Y
08
11
#7375000
b1 !
1Y
18
01
1<
0:
0X
1W
1V
0S
1P
0L
1J
1H
1D
19
1Q
0M
1K
1I
1E
0/
1.
1-
0*
1(
0&
1%
1$
1"
#7500000
b0 !
0Y
08
11
#7625000
b1 !
1Y
18
01
1:
1U
0P
0J
0H
0F
0B
1?
0=
0;
09
0Q
0K
0I
0G
0@
1,
0(
0%
0$
0#
#7750000
b0 !
0Y
08
11
#7875000
b1 !
1Y
18
01
0C
0A
0>
0<
0:
0W
0V
0U
1R
1N
1L
1J
0D
0?
1@
19
10
0@
0.
0-
0,
1)
